<svg xmlns="http://www.w3.org/2000/svg" width="27" height="1" viewBox="0 0 27 1">
  <line id="Line_7" data-name="Line 7" x2="27" transform="translate(0 0.5)" fill="none" stroke="#7c0018" stroke-width="1"/>
</svg>
