<svg xmlns="http://www.w3.org/2000/svg" width="14.606" height="14.606" viewBox="0 0 14.606 14.606">
  <path id="phone" d="M7.437,10.821a12.292,12.292,0,0,0,5.347,5.347l1.785-1.785a.807.807,0,0,1,.828-.195,9.256,9.256,0,0,0,2.9.463.814.814,0,0,1,.811.811v2.832a.814.814,0,0,1-.811.811A13.793,13.793,0,0,1,4.5,5.311.814.814,0,0,1,5.311,4.5h2.84a.814.814,0,0,1,.811.811,9.218,9.218,0,0,0,.463,2.9.814.814,0,0,1-.2.828L7.437,10.821Z" transform="translate(-4.5 -4.5)" fill="#fff"/>
</svg>
